         0.12117E+02          0.00000E+00
         0.12217E+02          0.65025E+01
         0.12317E+02          0.65238E+01
         0.12417E+02          0.65434E+01
         0.12517E+02          0.65611E+01
         0.12617E+02          0.65781E+01
         0.12717E+02          0.65936E+01
         0.12817E+02          0.66081E+01
         0.12917E+02          0.66211E+01
         0.13017E+02          0.66327E+01
         0.13117E+02          0.66439E+01
         0.13217E+02          0.66540E+01
         0.13317E+02          0.66627E+01
         0.13417E+02          0.66699E+01
         0.13517E+02          0.66762E+01
         0.13617E+02          0.66820E+01
         0.13717E+02          0.66844E+01
         0.13817E+02          0.66810E+01
         0.13917E+02          0.66821E+01
         0.14017E+02          0.66808E+01
         0.14117E+02          0.66780E+01
         0.14217E+02          0.66746E+01
         0.14317E+02          0.12849E+02
         0.14417E+02          0.12940E+02
         0.14517E+02          0.13126E+02
         0.14617E+02          0.13222E+02
         0.14717E+02          0.13280E+02
         0.14817E+02          0.13422E+02
         0.14917E+02          0.13479E+02
         0.15017E+02          0.13507E+02
         0.15117E+02          0.13608E+02
         0.15217E+02          0.13632E+02
         0.15317E+02          0.13635E+02
         0.15417E+02          0.13698E+02
         0.15517E+02          0.13695E+02
         0.15617E+02          0.13676E+02
         0.15717E+02          0.13705E+02
         0.15817E+02          0.13679E+02
         0.15917E+02          0.13643E+02
         0.16017E+02          0.13643E+02
         0.16117E+02          0.13601E+02
         0.16217E+02          0.13554E+02
         0.16317E+02          0.13530E+02
         0.16417E+02          0.13473E+02
         0.16517E+02          0.13414E+02
         0.16617E+02          0.13373E+02
         0.16717E+02          0.13314E+02
         0.16817E+02          0.13255E+02
         0.16917E+02          0.13209E+02
         0.17017E+02          0.13152E+02
         0.17117E+02          0.13097E+02
         0.17217E+02          0.13052E+02
         0.17317E+02          0.13001E+02
         0.17417E+02          0.12954E+02
         0.17517E+02          0.12915E+02
         0.17617E+02          0.12874E+02
         0.17717E+02          0.12836E+02
         0.17817E+02          0.12803E+02
         0.17917E+02          0.12776E+02
         0.18017E+02          0.12749E+02
         0.18117E+02          0.12726E+02
         0.18217E+02          0.12709E+02
         0.18317E+02          0.12694E+02
         0.18417E+02          0.12683E+02
         0.18517E+02          0.12673E+02
         0.18617E+02          0.12667E+02
         0.18717E+02          0.21849E+02
         0.18817E+02          0.21851E+02
         0.18917E+02          0.21961E+02
         0.19017E+02          0.21971E+02
         0.19117E+02          0.21979E+02
         0.19217E+02          0.22088E+02
         0.19317E+02          0.22102E+02
         0.19417E+02          0.22113E+02
         0.19517E+02          0.22214E+02
         0.19617E+02          0.22229E+02
         0.19717E+02          0.22241E+02
         0.19817E+02          0.22329E+02
         0.19917E+02          0.22341E+02
         0.20017E+02          0.22350E+02
         0.20117E+02          0.22420E+02
         0.20217E+02          0.22428E+02
         0.20317E+02          0.22433E+02
         0.20417E+02          0.22483E+02
         0.20517E+02          0.22484E+02
         0.20617E+02          0.22482E+02
         0.20717E+02          0.22513E+02
         0.20817E+02          0.22506E+02
         0.20917E+02          0.22496E+02
         0.21017E+02          0.22507E+02
         0.21117E+02          0.22494E+02
         0.21217E+02          0.22476E+02
         0.21317E+02          0.22471E+02
         0.21417E+02          0.22449E+02
         0.21517E+02          0.22425E+02
         0.21617E+02          0.22410E+02
         0.21717E+02          0.22382E+02
         0.21817E+02          0.22351E+02
         0.21917E+02          0.22330E+02
         0.22017E+02          0.22299E+02
         0.22117E+02          0.22261E+02
         0.22217E+02          0.22229E+02
         0.22317E+02          0.22190E+02
         0.22417E+02          0.22148E+02
         0.22517E+02          0.22106E+02
         0.22617E+02          0.22064E+02
         0.22717E+02          0.22018E+02
         0.22817E+02          0.21975E+02
         0.22917E+02          0.21928E+02
         0.23017E+02          0.21880E+02
         0.23117E+02          0.21832E+02
         0.23217E+02          0.21783E+02
         0.23317E+02          0.21732E+02
         0.23417E+02          0.21681E+02
         0.23517E+02          0.21630E+02
         0.23617E+02          0.21577E+02
         0.23717E+02          0.21524E+02
         0.23817E+02          0.21470E+02
         0.23917E+02          0.21415E+02
         0.24017E+02          0.21359E+02
         0.24117E+02          0.21303E+02
         0.24217E+02          0.21247E+02
         0.24317E+02          0.21189E+02
         0.24417E+02          0.21131E+02
         0.24517E+02          0.21073E+02
         0.24617E+02          0.21014E+02
         0.24717E+02          0.20954E+02
         0.24817E+02          0.20894E+02
         0.24917E+02          0.20833E+02
         0.25017E+02          0.20772E+02
         0.25117E+02          0.20711E+02
         0.25217E+02          0.20648E+02
         0.25317E+02          0.20586E+02
         0.25417E+02          0.20523E+02
         0.25517E+02          0.20460E+02
         0.25617E+02          0.20396E+02
         0.25717E+02          0.20332E+02
         0.25817E+02          0.20267E+02
         0.25917E+02          0.20203E+02
         0.26017E+02          0.20137E+02
         0.26117E+02          0.20072E+02
         0.26217E+02          0.20006E+02
         0.26317E+02          0.19941E+02
         0.26417E+02          0.19874E+02
         0.26517E+02          0.19808E+02
         0.26617E+02          0.19741E+02
         0.26717E+02          0.19675E+02
         0.26817E+02          0.19608E+02
         0.26917E+02          0.19541E+02
         0.27017E+02          0.19474E+02
         0.27117E+02          0.19406E+02
         0.27217E+02          0.19339E+02
         0.27317E+02          0.19272E+02
         0.27417E+02          0.19204E+02
         0.27517E+02          0.19137E+02
         0.27617E+02          0.19069E+02
         0.27717E+02          0.19002E+02
         0.27817E+02          0.18934E+02
         0.27917E+02          0.18867E+02
         0.28017E+02          0.18799E+02
         0.28117E+02          0.18732E+02
         0.28217E+02          0.18664E+02
         0.28317E+02          0.18597E+02
         0.28417E+02          0.18529E+02
         0.28517E+02          0.18462E+02
         0.28617E+02          0.18395E+02
         0.28717E+02          0.18328E+02
         0.28817E+02          0.18261E+02
         0.28917E+02          0.18194E+02
         0.29017E+02          0.18127E+02
         0.29117E+02          0.18060E+02
         0.29217E+02          0.17993E+02
         0.29317E+02          0.17927E+02
         0.29417E+02          0.17860E+02
         0.29517E+02          0.17794E+02
         0.29617E+02          0.17728E+02
         0.29717E+02          0.17661E+02
         0.29817E+02          0.17595E+02
         0.29917E+02          0.17529E+02
         0.30017E+02          0.17463E+02
         0.30117E+02          0.17398E+02
         0.30217E+02          0.17332E+02
         0.30317E+02          0.17266E+02
         0.30417E+02          0.17201E+02
         0.30517E+02          0.17136E+02
         0.30617E+02          0.17070E+02
         0.30717E+02          0.17005E+02
         0.30817E+02          0.16940E+02
         0.30917E+02          0.16875E+02
         0.31017E+02          0.16811E+02
         0.31117E+02          0.16746E+02
         0.31217E+02          0.16682E+02
         0.31317E+02          0.16617E+02
         0.31417E+02          0.16553E+02
         0.31517E+02          0.16489E+02
         0.31617E+02          0.16425E+02
         0.31717E+02          0.16361E+02
         0.31817E+02          0.16298E+02
         0.31917E+02          0.16234E+02
         0.32017E+02          0.16171E+02
         0.32117E+02          0.16108E+02
         0.32217E+02          0.16045E+02
         0.32317E+02          0.15982E+02
         0.32417E+02          0.15920E+02
         0.32517E+02          0.15857E+02
         0.32617E+02          0.15795E+02
         0.32717E+02          0.15733E+02
         0.32817E+02          0.15671E+02
         0.32917E+02          0.15609E+02
         0.33017E+02          0.15548E+02
         0.33117E+02          0.15487E+02
         0.33217E+02          0.15426E+02
         0.33317E+02          0.15365E+02
         0.33417E+02          0.15304E+02
         0.33517E+02          0.15244E+02
         0.33617E+02          0.15184E+02
         0.33717E+02          0.15124E+02
         0.33817E+02          0.15064E+02
         0.33917E+02          0.15005E+02
         0.34017E+02          0.14946E+02
         0.34117E+02          0.14887E+02
         0.34217E+02          0.14828E+02
         0.34317E+02          0.14770E+02
         0.34417E+02          0.14712E+02
         0.34517E+02          0.14654E+02
         0.34617E+02          0.14596E+02
         0.34717E+02          0.14538E+02
         0.34817E+02          0.14481E+02
         0.34917E+02          0.14424E+02
         0.35017E+02          0.14367E+02
         0.35117E+02          0.14311E+02
         0.35217E+02          0.14255E+02
         0.35317E+02          0.14199E+02
         0.35417E+02          0.14143E+02
         0.35517E+02          0.14087E+02
         0.35617E+02          0.14032E+02
         0.35717E+02          0.13977E+02
         0.35817E+02          0.13922E+02
         0.35917E+02          0.13868E+02
         0.36017E+02          0.13813E+02
         0.36117E+02          0.13759E+02
         0.36217E+02          0.13705E+02
         0.36317E+02          0.13652E+02
         0.36417E+02          0.13598E+02
         0.36517E+02          0.13545E+02
         0.36617E+02          0.13492E+02
         0.36717E+02          0.13439E+02
         0.36817E+02          0.13387E+02
         0.36917E+02          0.13335E+02
         0.37017E+02          0.13283E+02
         0.37117E+02          0.13231E+02
         0.37217E+02          0.13179E+02
         0.37317E+02          0.13128E+02
         0.37417E+02          0.13076E+02
         0.37517E+02          0.13026E+02
         0.37617E+02          0.12975E+02
         0.37717E+02          0.12924E+02
         0.37817E+02          0.12874E+02
         0.37917E+02          0.12824E+02
         0.38017E+02          0.12774E+02
         0.38117E+02          0.12724E+02
         0.38217E+02          0.12675E+02
         0.38317E+02          0.12625E+02
         0.38417E+02          0.12576E+02
         0.38517E+02          0.12527E+02
         0.38617E+02          0.12479E+02
         0.38717E+02          0.12430E+02
         0.38817E+02          0.12382E+02
         0.38917E+02          0.12334E+02
         0.39017E+02          0.12286E+02
         0.39117E+02          0.12238E+02
         0.39217E+02          0.12191E+02
         0.39317E+02          0.12144E+02
         0.39417E+02          0.12097E+02
         0.39517E+02          0.12050E+02
         0.39617E+02          0.12003E+02
         0.39717E+02          0.11957E+02
         0.39817E+02          0.11911E+02
         0.39917E+02          0.11865E+02
         0.40017E+02          0.11819E+02
         0.40117E+02          0.11773E+02
         0.40217E+02          0.11728E+02
         0.40317E+02          0.11683E+02
         0.40417E+02          0.11638E+02
         0.40517E+02          0.11593E+02
         0.40617E+02          0.11548E+02
         0.40717E+02          0.11504E+02
         0.40817E+02          0.11460E+02
         0.40917E+02          0.11416E+02
         0.41017E+02          0.11372E+02
         0.41117E+02          0.11329E+02
         0.41217E+02          0.11285E+02
         0.41317E+02          0.11242E+02
         0.41417E+02          0.11199E+02
         0.41517E+02          0.11157E+02
         0.41617E+02          0.11114E+02
         0.41717E+02          0.11072E+02
         0.41817E+02          0.11030E+02
         0.41917E+02          0.10988E+02
         0.42017E+02          0.10946E+02
         0.42117E+02          0.10905E+02
         0.42217E+02          0.10864E+02
         0.42317E+02          0.10823E+02
         0.42417E+02          0.10782E+02
         0.42517E+02          0.10741E+02
         0.42617E+02          0.10700E+02
         0.42717E+02          0.10660E+02
         0.42817E+02          0.10620E+02
         0.42917E+02          0.10580E+02
         0.43017E+02          0.10541E+02
         0.43117E+02          0.10501E+02
         0.43217E+02          0.10462E+02
         0.43317E+02          0.10423E+02
         0.43417E+02          0.10384E+02
         0.43517E+02          0.10345E+02
         0.43617E+02          0.10306E+02
         0.43717E+02          0.10268E+02
         0.43817E+02          0.10230E+02
         0.43917E+02          0.10192E+02
         0.44017E+02          0.10154E+02
         0.44117E+02          0.10116E+02
         0.44217E+02          0.10079E+02
         0.44317E+02          0.10042E+02
         0.44417E+02          0.10004E+02
         0.44517E+02          0.99675E+01
         0.44617E+02          0.99307E+01
         0.44717E+02          0.98942E+01
         0.44817E+02          0.98577E+01
         0.44917E+02          0.98215E+01
         0.45017E+02          0.97854E+01
         0.45117E+02          0.97495E+01
         0.45217E+02          0.97137E+01
         0.45317E+02          0.96782E+01
         0.45417E+02          0.96428E+01
         0.45517E+02          0.96075E+01
         0.45617E+02          0.95724E+01
         0.45717E+02          0.95375E+01
         0.45817E+02          0.95027E+01
         0.45917E+02          0.94681E+01
         0.46017E+02          0.94336E+01
         0.46117E+02          0.93993E+01
         0.46217E+02          0.93652E+01
         0.46317E+02          0.93312E+01
         0.46417E+02          0.92974E+01
         0.46517E+02          0.92637E+01
         0.46617E+02          0.92301E+01
         0.46717E+02          0.91968E+01
         0.46817E+02          0.91635E+01
         0.46917E+02          0.91305E+01
         0.47017E+02          0.90975E+01
         0.47117E+02          0.90648E+01
         0.47217E+02          0.90321E+01
         0.47317E+02          0.89996E+01
         0.47417E+02          0.89673E+01
         0.47517E+02          0.89351E+01
         0.47617E+02          0.89031E+01
         0.47717E+02          0.88712E+01
         0.47817E+02          0.88394E+01
         0.47917E+02          0.88078E+01
         0.48017E+02          0.87763E+01
         0.48117E+02          0.87450E+01
         0.48217E+02          0.87138E+01
         0.48317E+02          0.86828E+01
         0.48417E+02          0.86519E+01
         0.48517E+02          0.86211E+01
         0.48617E+02          0.85905E+01
         0.48717E+02          0.85600E+01
         0.48817E+02          0.85297E+01
         0.48917E+02          0.84995E+01
         0.49017E+02          0.84694E+01
         0.49117E+02          0.84395E+01
         0.49217E+02          0.84097E+01
         0.49317E+02          0.83800E+01
         0.49417E+02          0.83505E+01
         0.49517E+02          0.83212E+01
         0.49617E+02          0.82919E+01
         0.49717E+02          0.82628E+01
         0.49817E+02          0.82339E+01
         0.49917E+02          0.82050E+01
         0.50017E+02          0.81763E+01
         0.50117E+02          0.81478E+01
         0.50217E+02          0.81194E+01
         0.50317E+02          0.80911E+01
         0.50417E+02          0.80629E+01
         0.50517E+02          0.80349E+01
         0.50617E+02          0.80070E+01
         0.50717E+02          0.79792E+01
         0.50817E+02          0.79516E+01
         0.50917E+02          0.79241E+01
         0.51017E+02          0.78967E+01
         0.51117E+02          0.78695E+01
         0.51217E+02          0.78423E+01
         0.51317E+02          0.78154E+01
         0.51417E+02          0.77885E+01
         0.51517E+02          0.77618E+01
         0.51617E+02          0.77351E+01
         0.51717E+02          0.77087E+01
         0.51817E+02          0.76823E+01
         0.51917E+02          0.76561E+01
         0.52017E+02          0.76300E+01
         0.52117E+02          0.76040E+01
         0.52217E+02          0.75781E+01
         0.52317E+02          0.75524E+01
         0.52417E+02          0.75267E+01
         0.52517E+02          0.75012E+01
         0.52617E+02          0.74759E+01
         0.52717E+02          0.74506E+01
         0.52817E+02          0.74255E+01
         0.52917E+02          0.74004E+01
         0.53017E+02          0.73755E+01
         0.53117E+02          0.73507E+01
         0.53217E+02          0.73260E+01
         0.53317E+02          0.73015E+01
         0.53417E+02          0.72770E+01
         0.53517E+02          0.72527E+01
         0.53617E+02          0.72284E+01
         0.53717E+02          0.72043E+01
         0.53817E+02          0.71803E+01
         0.53917E+02          0.71564E+01
         0.54017E+02          0.71326E+01
         0.54117E+02          0.71089E+01
         0.54217E+02          0.70854E+01
         0.54317E+02          0.70619E+01
         0.54417E+02          0.70385E+01
         0.54517E+02          0.70153E+01
         0.54617E+02          0.69921E+01
         0.54717E+02          0.69691E+01
         0.54817E+02          0.69461E+01
         0.54917E+02          0.69233E+01
         0.55017E+02          0.69005E+01
         0.55117E+02          0.68779E+01
         0.55217E+02          0.68554E+01
         0.55317E+02          0.68329E+01
         0.55417E+02          0.68106E+01
         0.55517E+02          0.67883E+01
         0.55617E+02          0.67662E+01
         0.55717E+02          0.67441E+01
         0.55817E+02          0.67222E+01
         0.55917E+02          0.67003E+01
         0.56017E+02          0.66785E+01
         0.56117E+02          0.66569E+01
         0.56217E+02          0.66353E+01
         0.56317E+02          0.66138E+01
         0.56417E+02          0.65924E+01
         0.56517E+02          0.65711E+01
         0.56617E+02          0.65499E+01
         0.56717E+02          0.65288E+01
         0.56817E+02          0.65077E+01
         0.56917E+02          0.64868E+01
         0.57017E+02          0.64659E+01
         0.57117E+02          0.64452E+01
         0.57217E+02          0.64245E+01
         0.57317E+02          0.64039E+01
         0.57417E+02          0.63834E+01
         0.57517E+02          0.63630E+01
         0.57617E+02          0.63426E+01
         0.57717E+02          0.63224E+01
         0.57817E+02          0.63022E+01
         0.57917E+02          0.62822E+01
         0.58017E+02          0.62622E+01
         0.58117E+02          0.62422E+01
         0.58217E+02          0.62224E+01
         0.58317E+02          0.62027E+01
         0.58417E+02          0.61830E+01
         0.58517E+02          0.61634E+01
         0.58617E+02          0.61439E+01
         0.58717E+02          0.61245E+01
         0.58817E+02          0.61051E+01
         0.58917E+02          0.60859E+01
         0.59017E+02          0.60667E+01
         0.59117E+02          0.60476E+01
         0.59217E+02          0.60286E+01
         0.59317E+02          0.60096E+01
         0.59417E+02          0.59908E+01
         0.59517E+02          0.59720E+01
         0.59617E+02          0.59532E+01
         0.59717E+02          0.59346E+01
         0.59817E+02          0.59160E+01
         0.59917E+02          0.58976E+01
         0.60017E+02          0.58792E+01
         0.60117E+02          0.58608E+01
         0.60217E+02          0.58426E+01
         0.60317E+02          0.58244E+01
         0.60417E+02          0.58063E+01
         0.60517E+02          0.57882E+01
         0.60617E+02          0.57703E+01
         0.60717E+02          0.57524E+01
         0.60817E+02          0.57346E+01
         0.60917E+02          0.57168E+01
         0.61017E+02          0.56992E+01
         0.61117E+02          0.56816E+01
         0.61217E+02          0.56640E+01
         0.61317E+02          0.56466E+01
         0.61417E+02          0.56292E+01
         0.61517E+02          0.56119E+01
         0.61617E+02          0.55946E+01
         0.61717E+02          0.55775E+01
         0.61817E+02          0.55604E+01
         0.61917E+02          0.55433E+01
         0.62017E+02          0.55264E+01
         0.62117E+02          0.55095E+01
         0.62217E+02          0.54927E+01
         0.62317E+02          0.54759E+01
         0.62417E+02          0.54592E+01
         0.62517E+02          0.54426E+01
         0.62617E+02          0.54260E+01
         0.62717E+02          0.54096E+01
         0.62817E+02          0.53931E+01
         0.62917E+02          0.53768E+01
         0.63017E+02          0.53605E+01
         0.63117E+02          0.53443E+01
         0.63217E+02          0.53281E+01
         0.63317E+02          0.53120E+01
         0.63417E+02          0.52960E+01
         0.63517E+02          0.52801E+01
         0.63617E+02          0.52642E+01
         0.63717E+02          0.52483E+01
         0.63817E+02          0.52326E+01
         0.63917E+02          0.52168E+01
         0.64017E+02          0.52012E+01
         0.64117E+02          0.51856E+01
         0.64217E+02          0.51701E+01
         0.64317E+02          0.51546E+01
         0.64417E+02          0.51393E+01
         0.64517E+02          0.51239E+01
         0.64617E+02          0.51086E+01
         0.64717E+02          0.50934E+01
         0.64817E+02          0.50783E+01
         0.64917E+02          0.50632E+01
         0.65017E+02          0.50481E+01
         0.65117E+02          0.50332E+01
         0.65217E+02          0.50182E+01
         0.65317E+02          0.50034E+01
         0.65417E+02          0.49886E+01
         0.65517E+02          0.49738E+01
         0.65617E+02          0.49591E+01
         0.65717E+02          0.49445E+01
         0.65817E+02          0.49299E+01
         0.65917E+02          0.49154E+01
         0.66017E+02          0.49009E+01
         0.66117E+02          0.48865E+01
         0.66217E+02          0.48722E+01
         0.66317E+02          0.48579E+01
         0.66417E+02          0.48436E+01
         0.66517E+02          0.48294E+01
         0.66617E+02          0.48153E+01
         0.66717E+02          0.48012E+01
         0.66817E+02          0.47872E+01
         0.66917E+02          0.47732E+01
         0.67017E+02          0.47593E+01
         0.67117E+02          0.47454E+01
         0.67217E+02          0.47316E+01
         0.67317E+02          0.47178E+01
         0.67417E+02          0.47040E+01
         0.67517E+02          0.46904E+01
         0.67617E+02          0.46767E+01
         0.67717E+02          0.46632E+01
         0.67817E+02          0.46496E+01
         0.67917E+02          0.46361E+01
         0.68017E+02          0.46227E+01
         0.68117E+02          0.46093E+01
         0.68217E+02          0.45960E+01
         0.68317E+02          0.45827E+01
         0.68417E+02          0.45695E+01
         0.68517E+02          0.45563E+01
         0.68617E+02          0.45431E+01
         0.68717E+02          0.45300E+01
         0.68817E+02          0.45169E+01
         0.68917E+02          0.45039E+01
         0.69017E+02          0.44910E+01
         0.69117E+02          0.44780E+01
         0.69217E+02          0.44651E+01
         0.69317E+02          0.44523E+01
         0.69417E+02          0.44395E+01
         0.69517E+02          0.44268E+01
         0.69617E+02          0.44141E+01
         0.69717E+02          0.44014E+01
         0.69817E+02          0.43888E+01
         0.69917E+02          0.43762E+01
         0.70017E+02          0.43636E+01
         0.70117E+02          0.43512E+01
         0.70217E+02          0.43387E+01
         0.70317E+02          0.43263E+01
         0.70417E+02          0.43139E+01
         0.70517E+02          0.43016E+01
         0.70617E+02          0.42893E+01
         0.70717E+02          0.42770E+01
         0.70817E+02          0.42648E+01
         0.70917E+02          0.42527E+01
         0.71017E+02          0.42405E+01
         0.71117E+02          0.42285E+01
         0.71217E+02          0.42164E+01
         0.71317E+02          0.42044E+01
         0.71417E+02          0.41924E+01
         0.71517E+02          0.41805E+01
         0.71617E+02          0.41686E+01
         0.71717E+02          0.41567E+01
         0.71817E+02          0.41449E+01
         0.71917E+02          0.41331E+01
         0.72017E+02          0.41214E+01
         0.72117E+02          0.41097E+01
         0.72217E+02          0.40980E+01
         0.72317E+02          0.40864E+01
         0.72417E+02          0.40748E+01
         0.72517E+02          0.40633E+01
         0.72617E+02          0.40518E+01
         0.72717E+02          0.40403E+01
         0.72817E+02          0.40289E+01
         0.72917E+02          0.40175E+01
         0.73017E+02          0.40061E+01
         0.73117E+02          0.39948E+01
         0.73217E+02          0.39835E+01
         0.73317E+02          0.39722E+01
         0.73417E+02          0.39610E+01
         0.73517E+02          0.39499E+01
         0.73617E+02          0.39387E+01
         0.73717E+02          0.39276E+01
         0.73817E+02          0.39166E+01
         0.73917E+02          0.39055E+01
         0.74017E+02          0.38945E+01
         0.74117E+02          0.38836E+01
         0.74217E+02          0.38727E+01
         0.74317E+02          0.38618E+01
         0.74417E+02          0.38510E+01
         0.74517E+02          0.38402E+01
         0.74617E+02          0.38294E+01
         0.74717E+02          0.38187E+01
         0.74817E+02          0.38080E+01
         0.74917E+02          0.37973E+01
         0.75017E+02          0.37867E+01
         0.75117E+02          0.37761E+01
         0.75217E+02          0.37656E+01
         0.75317E+02          0.37551E+01
         0.75417E+02          0.37446E+01
         0.75517E+02          0.37341E+01
         0.75617E+02          0.37237E+01
         0.75717E+02          0.37134E+01
         0.75817E+02          0.37031E+01
         0.75917E+02          0.36928E+01
         0.76017E+02          0.36825E+01
         0.76117E+02          0.36723E+01
         0.76217E+02          0.36621E+01
         0.76317E+02          0.36520E+01
         0.76417E+02          0.36419E+01
         0.76517E+02          0.36318E+01
         0.76617E+02          0.36218E+01
         0.76717E+02          0.36118E+01
         0.76817E+02          0.36019E+01
         0.76917E+02          0.35919E+01
         0.77017E+02          0.35821E+01
         0.77117E+02          0.35722E+01
         0.77217E+02          0.35624E+01
         0.77317E+02          0.35526E+01
         0.77417E+02          0.35429E+01
         0.77517E+02          0.35332E+01
         0.77617E+02          0.35235E+01
         0.77717E+02          0.35139E+01
         0.77817E+02          0.35043E+01
         0.77917E+02          0.34948E+01
         0.78017E+02          0.34853E+01
         0.78117E+02          0.34758E+01
         0.78217E+02          0.34663E+01
         0.78317E+02          0.34570E+01
         0.78417E+02          0.34476E+01
         0.78517E+02          0.34383E+01
         0.78617E+02          0.34290E+01
         0.78717E+02          0.34198E+01
         0.78817E+02          0.34107E+01
         0.78917E+02          0.34016E+01
         0.79017E+02          0.33926E+01
         0.79117E+02          0.33836E+01
         0.79217E+02          0.33747E+01
         0.79317E+02          0.33659E+01
         0.79417E+02          0.33572E+01
         0.79517E+02          0.33485E+01
         0.79617E+02          0.33400E+01
         0.79717E+02          0.33315E+01
         0.79817E+02          0.33232E+01
         0.79917E+02          0.33150E+01
         0.80017E+02          0.33069E+01
         0.80117E+02          0.32990E+01
         0.80217E+02          0.32913E+01
         0.80317E+02          0.32837E+01
         0.80417E+02          0.32764E+01
         0.80517E+02          0.32692E+01
         0.80617E+02          0.32622E+01
         0.80717E+02          0.32555E+01
         0.80817E+02          0.32491E+01
         0.80917E+02          0.32429E+01
         0.81017E+02          0.32369E+01
         0.81117E+02          0.32313E+01
         0.81217E+02          0.32260E+01
         0.81317E+02          0.32210E+01
         0.81417E+02          0.32163E+01
         0.81517E+02          0.32119E+01
         0.81617E+02          0.32080E+01
         0.81717E+02          0.32043E+01
         0.81817E+02          0.32010E+01
         0.81917E+02          0.31981E+01
         0.82017E+02          0.31956E+01
